{
	"tenant":          "my_tenant_id",
	"org_id":          "my_ord_id@AdobeOrg",
	"api_key":         "my_api_key",
	"tech_account_id": "my_tech_account_id@techacct.adobe.com",
	"client_secret":   "secret",
	"private_key":     "private.key"
}